{
	"info": {
		"_postman_id": "48c4b6e4-92d8-467c-84af-0d1ec4572b4b",
		"name": "reqres.in_test",
		"schema": "https://schema.getpostman.com/json/collection/v2.1.0/collection.json",
		"_exporter_id": "26212561"
	},
	"item": [
		{
			"name": "https://reqres.in/api/login",
			"event": [
				{
					"listen": "prerequest",
					"script": {
						"exec": [
							""
						],
						"type": "text/javascript",
						"packages": {}
					}
				},
				{
					"listen": "test",
					"script": {
						"exec": [
							"pm.test(\"Status code is 200\", function () {\r",
							"    pm.response.to.have.status(200);\r",
							"});\r",
							"pm.test(\"Response must have the token property\", function () {\r",
							"    var jsonData = pm.response.json();\r",
							"    pm.expect(jsonData).to.keys('token');\r",
							"});\r",
							"\r",
							"\r",
							""
						],
						"type": "text/javascript",
						"packages": {}
					}
				}
			],
			"request": {
				"method": "POST",
				"header": [],
				"body": {
					"mode": "raw",
					"raw": "{\r\n    \"email\": \"{{email}}\",\r\n    \"password\": \"{{password}}\"\r\n}",
					"options": {
						"raw": {
							"language": "json"
						}
					}
				},
				"url": {
					"raw": "https://reqres.in/api/login",
					"protocol": "https",
					"host": [
						"reqres",
						"in"
					],
					"path": [
						"api",
						"login"
					]
				},
				"description": "\n### Login API\n\nThis API endpoint is used to authenticate a user login.\n\n#### Request Body\n- `email` (string, required): The email address of the user.\n- `password` (string, required): The password of the user.\n\n#### Response\nThe response for this request is in JSON format and follows the schema below:\n```json\n{\n  \"type\": \"object\",\n  \"properties\": {\n    \"token\": {\n      \"type\": \"string\"\n    }\n  }\n}\n```\n"
			},
			"response": [
				{
					"name": "https://reqres.in/api/login",
					"originalRequest": {
						"method": "POST",
						"header": [],
						"body": {
							"mode": "raw",
							"raw": "{\r\n    \"email\": \"{{eve.holt@reqres.in}}\",\r\n    \"password\": \"{{1234}}\"\r\n}",
							"options": {
								"raw": {
									"language": "json"
								}
							}
						},
						"url": {
							"raw": "https://reqres.in/api/login",
							"protocol": "https",
							"host": [
								"reqres",
								"in"
							],
							"path": [
								"api",
								"login"
							]
						}
					},
					"status": "Bad Request",
					"code": 400,
					"_postman_previewlanguage": "json",
					"header": [
						{
							"key": "Date",
							"value": "Thu, 23 May 2024 06:33:15 GMT"
						},
						{
							"key": "Content-Type",
							"value": "application/json; charset=utf-8"
						},
						{
							"key": "Content-Length",
							"value": "26"
						},
						{
							"key": "Connection",
							"value": "keep-alive"
						},
						{
							"key": "Report-To",
							"value": "{\"group\":\"heroku-nel\",\"max_age\":3600,\"endpoints\":[{\"url\":\"https://nel.heroku.com/reports?ts=1716445995&sid=c4c9725f-1ab0-44d8-820f-430df2718e11&s=RxRRIEA604dK4J6j%2BLPXJivNzYX3v7P2HJCvKFPUvwY%3D\"}]}"
						},
						{
							"key": "Reporting-Endpoints",
							"value": "heroku-nel=https://nel.heroku.com/reports?ts=1716445995&sid=c4c9725f-1ab0-44d8-820f-430df2718e11&s=RxRRIEA604dK4J6j%2BLPXJivNzYX3v7P2HJCvKFPUvwY%3D"
						},
						{
							"key": "Nel",
							"value": "{\"report_to\":\"heroku-nel\",\"max_age\":3600,\"success_fraction\":0.005,\"failure_fraction\":0.05,\"response_headers\":[\"Via\"]}"
						},
						{
							"key": "X-Powered-By",
							"value": "Express"
						},
						{
							"key": "Access-Control-Allow-Origin",
							"value": "*"
						},
						{
							"key": "Etag",
							"value": "W/\"1a-EGIcyP6BIiCXl5Gb1aph5CGf4VQ\""
						},
						{
							"key": "Via",
							"value": "1.1 vegur"
						},
						{
							"key": "CF-Cache-Status",
							"value": "DYNAMIC"
						},
						{
							"key": "Server",
							"value": "cloudflare"
						},
						{
							"key": "CF-RAY",
							"value": "8883036c3a61e011-NRT"
						}
					],
					"cookie": [],
					"body": "{\n    \"error\": \"user not found\"\n}"
				}
			]
		},
		{
			"name": "https://reqres.in/api/users?page=2",
			"event": [
				{
					"listen": "test",
					"script": {
						"exec": [
							"pm.test(\"Response status code is 200\", function () {\r",
							"    pm.expect(pm.response.code).to.equal(200);\r",
							"});\r",
							"\r",
							"\r",
							"pm.test(\"Response time is less than 200ms\", function () {\r",
							"  pm.expect(pm.response.responseTime).to.be.below(400);\r",
							"});\r",
							"\r",
							"\r",
							"pm.test(\"Content-Type header is application/json\", function () {\r",
							"    pm.expect(pm.response.headers.get(\"Content-Type\")).to.include(\"application/json\");\r",
							"});\r",
							"\r",
							"\r",
							"pm.test(\"Support object is present and contains expected properties\", function () {\r",
							"    const responseData = pm.response.json();\r",
							"\r",
							"    pm.expect(responseData).to.be.an('object');\r",
							"    pm.expect(responseData.support).to.exist;\r",
							"    pm.expect(responseData.support.url).to.exist;\r",
							"    pm.expect(responseData.support.text).to.exist;\r",
							"});\r",
							""
						],
						"type": "text/javascript",
						"packages": {}
					}
				}
			],
			"request": {
				"method": "GET",
				"header": [],
				"url": {
					"raw": "{{url}}/api/users?page=2",
					"host": [
						"{{url}}"
					],
					"path": [
						"api",
						"users"
					],
					"query": [
						{
							"key": "page",
							"value": "2"
						}
					]
				}
			},
			"response": [
				{
					"name": "https://reqres.in/api/users?page=2",
					"originalRequest": {
						"method": "GET",
						"header": [
							{
								"key": "Content-Type",
								"value": "application/json"
							}
						],
						"url": {
							"raw": "{{url}}/api/users?page=2",
							"host": [
								"{{url}}"
							],
							"path": [
								"api",
								"users"
							],
							"query": [
								{
									"key": "page",
									"value": "2"
								}
							]
						}
					},
					"_postman_previewlanguage": null,
					"header": [
						{
							"key": "Content-Type",
							"value": "application/json",
							"description": "",
							"type": "text"
						}
					],
					"cookie": [],
					"body": "{\r\n    \"page\": 2,\r\n    \"per_page\": 6,\r\n    \"total\": 12,\r\n    \"total_pages\": 2,\r\n    \"data\": [\r\n        {\r\n            \"id\": 7,\r\n            \"email\": \"michael.lawson@reqres.in\",\r\n            \"first_name\": \"Michael\",\r\n            \"last_name\": \"Lawson\",\r\n            \"avatar\": \"https://reqres.in/img/faces/7-image.jpg\"\r\n        },\r\n        {\r\n            \"id\": 8,\r\n            \"email\": \"lindsay.ferguson@reqres.in\",\r\n            \"first_name\": \"Lindsay\",\r\n            \"last_name\": \"Ferguson\",\r\n            \"avatar\": \"https://reqres.in/img/faces/8-image.jpg\"\r\n        },\r\n        {\r\n            \"id\": 9,\r\n            \"email\": \"tobias.funke@reqres.in\",\r\n            \"first_name\": \"Tobias\",\r\n            \"last_name\": \"Funke\",\r\n            \"avatar\": \"https://reqres.in/img/faces/9-image.jpg\"\r\n        },\r\n        {\r\n            \"id\": 10,\r\n            \"email\": \"byron.fields@reqres.in\",\r\n            \"first_name\": \"Byron\",\r\n            \"last_name\": \"Fields\",\r\n            \"avatar\": \"https://reqres.in/img/faces/10-image.jpg\"\r\n        },\r\n        {\r\n            \"id\": 11,\r\n            \"email\": \"george.edwards@reqres.in\",\r\n            \"first_name\": \"George\",\r\n            \"last_name\": \"Edwards\",\r\n            \"avatar\": \"https://reqres.in/img/faces/11-image.jpg\"\r\n        },\r\n        {\r\n            \"id\": 12,\r\n            \"email\": \"rachel.howell@reqres.in\",\r\n            \"first_name\": \"Rachel\",\r\n            \"last_name\": \"Howell\",\r\n            \"avatar\": \"https://reqres.in/img/faces/12-image.jpg\"\r\n        }\r\n    ],\r\n    \"support\": {\r\n        \"url\": \"https://reqres.in/#support-heading\",\r\n        \"text\": \"To keep ReqRes free, contributions towards server costs are appreciated!\"\r\n    }\r\n}"
				}
			]
		},
		{
			"name": "https://reqres.in/api/users",
			"event": [
				{
					"listen": "test",
					"script": {
						"exec": [
							"pm.test(\"Status code is 201\", function () {\r",
							"    pm.response.to.have.status(201);\r",
							"});\r",
							"\r",
							"pm.test(\"Json data keys\", function () {\r",
							"    var jsonData = pm.response.json();\r",
							"    pm.expect(jsonData).to.keys(['createdAt', 'id', 'name', 'job']);\r",
							"});\r",
							""
						],
						"type": "text/javascript",
						"packages": {}
					}
				}
			],
			"request": {
				"method": "POST",
				"header": [],
				"body": {
					"mode": "raw",
					"raw": "{\r\n    \"name\": \"{{name}}\",\r\n    \"job\": \"{{job}}\"\r\n}",
					"options": {
						"raw": {
							"language": "json"
						}
					}
				},
				"url": {
					"raw": "https://reqres.in/api/users",
					"protocol": "https",
					"host": [
						"reqres",
						"in"
					],
					"path": [
						"api",
						"users"
					]
				}
			},
			"response": []
		}
	]
}